{
  "buildings-utility": true,
  "docHead": {
    "title": "Utility Buildings | CXT Prefabricated Concrete Buildings",
    "description": "View our selection of prefabricated utility concrete buildings.",
    "devPath": "../../"
  },
  "page": {
    "title": "Utility Buildings",
    "name": "buildingsutility"
  },
  "breadcrumbs": [
    {
      "linkName": "home",
      "text": "Home",
      "pressed": "false",
      "disabled": "false"
    },
    {
      "linkName": "products",
      "text": "Products",
      "pressed": "false",
      "disabled": "false"
    },
    {
      "linkName": "products-buildings",
      "text": "Buildings",
      "pressed": "false",
      "disabled": "false"
    },
    {
      "currPage": "true",
      "linkName": "buildings-utility",
      "text": "Utility",
      "pressed": "true",
      "disabled": "true"
    }
  ],
  "sort": {
    "title": "Sort By:",
    "options": [
      {
        "dataAttributes": {
          "data-category": "alphabetical",
          "data-order": "ascending"
        },
        "pressed": "true",
        "disabled": "true",
        "autocomplete": "off",
        "displayText": "A-Z"
      },
      {
        "dataAttributes": {
          "data-category": "alphabetical",
          "data-order": "descending"
        },
        "pressed": "false",
        "disabled": "false",
        "autocomplete": "off",
        "displayText": "Z-A"
      }
    ]
  },
  "buildings": [
    {
      "buildingName": "mendocino",
      "linkName": "building-mendocino",
      "pressed": "false",
      "disabled": "false",
      "placeholderImg": "true",
      "text": "Mendocino"
    },
    {
      "buildingName": "schweitzer-1",
      "linkName": "building-schweitzer1",
      "pressed": "false",
      "disabled": "false",
      "text": "Schweitzer I"
    },
    {
      "buildingName": "schweitzer-2",
      "linkName": "building-schweitzer2",
      "pressed": "false",
      "disabled": "false",
      "text": "Schweitzer II"
    }
  ],
  "filter": {
    "categories": [
      {
        "title": "Building Type",
        "category": "building-type",
        "btnPressed": "true",
        "btnDisabled": "false",
        "menuHidden": "false",
        "options": [
          {
            "title": "Utility",
            "pressed": "true",
            "disabled": "false",
            "value": "utility",
            "inputDisabled": "true",
            "checked": "true"
          }
        ]
      },
      {
        "title": "Size",
        "category": "building-size",
        "btnPressed": "false",
        "btnDisabled": "false",
        "menuHidden": "true",
        "options": [
          {
            "title": "10<sup>'</sup> 6<sup>\"</sup> x 12<sup>'</sup>",
            "pressed": "false",
            "disabled": "false",
            "value": "126x144"
          },
          {
            "title": "10<sup>'</sup> 6<sup>\"</sup> x 20<sup>'</sup>",
            "pressed": "false",
            "disabled": "false",
            "value": "126x240"
          }
        ]
      },
      {
        "title": "Plumbing",
        "category": "plumbing",
        "btnPressed": "false",
        "btnDisabled": "false",
        "menuHidden": "true",
        "options": [
          {
            "title": "No",
            "pressed": "true",
            "disabled": "false",
            "value": "no",
            "inputDisabled": "true",
            "checked": "true"
          }
        ]
      },
      {
        "title": "Number: Restrooms",
        "category": "num-restroom",
        "btnPressed": "false",
        "btnDisabled": "false",
        "menuHidden": "true",
        "options": [
          {
            "title": "0",
            "pressed": "true",
            "disabled": "false",
            "value": "0",
            "inputDisabled": "true",
            "checked": "true"
          }
        ]
      }
    ]
  }
}
