{
  "docHead": {
    "title": "Rocky Moutain Vault Restroom | CXT Prefabricated Concrete Buildings",
    "description": "View our prefabricated concrete Rocky Moutain vault restroom.",
    "devPath": "../../"
  },
  "page": {
    "title": "Rocky Moutain"
  },
  "breadcrumbs": [
    {
      "linkName": "home",
      "text": "Home",
      "pressed": "false",
      "disabled": "false"
    },
    {
      "text": "Products",
      "linkName": "products",
      "pressed": "false",
      "disabled": "false"
    },
    {
      "text": "Buildings",
      "linkName": "products-buildings",
      "pressed": "false",
      "disabled": "false"
    },
    {
      "text": "Vault",
      "linkName": "buildings-vault",
      "pressed": "false",
      "disabled": "false"
    },
    {
      "currPage": "true",
      "linkName": "building-rocky-mtn",
      "text": "Rocky Moutain",
      "pressed": "true",
      "disabled": "true"
    }
  ],
  "name": "Rocky Mountain",
  "specs": {
    "Use": "1 Single-User Restroom",
    "Size": "6' 6\" x 14' 8\"",
    "Total Number of Restrooms": "1",
    "Total Number of Toilets": "1",
    "Total Number of ADA Toilets": "1",
    "Total Number of Sinks": "1",
    "Total Number of Showers": "0",
    "Total Number of ADA Showers": "0",
    "Total Number of Waste Clean-out Hatches": "1",
    "Total Number of Waste Vaults": "1",
    "Plumbing": "No",
    "Wind Load": "150 mph",
    "Snow Load": "350 lb/ft<sup>2</sup>",
    "Floor Load": "400 lb/ft<sup>2</sup>",
    "Earthquake Load": "Seismic group 1 design category E"
  },
  "resources": {
    "linkName": "rocky-mtn",
    "specs": [
      {
        "resource": "spec",
        "text": "Rocky Mountain Specifications",
        "pressed": "false",
        "disabled": "false"
      }
    ],
    "drawings": [
      {
        "resource": "spec-drawing-left-hand",
        "text": "Rocky Mountain Left Hand Drawings",
        "pressed": "false",
        "disabled": "false"
      },
      {
        "resource": "spec-drawing-right-hand",
        "text": "Rocky Mountain Right Hand Drawings",
        "pressed": "false",
        "disabled": "false"
      }
    ],
    "images": [
      {
        "img": "images/buildings/rockymtn/rockymtn.jpg",
        "imgAlt": "View of an installed Rocky Mountain vault restroom building.",
        "imgId": "rockymtnExteriorImg1",
        "wallTexture": ["Horizontal Lap (upper)", "Napa Valley (lower)"],
        "roofTexture": ["Cedar Shake"]
      },
      {
        "img": "images/buildings/rockymtn/rockymtn2.jpg",
        "imgAlt": "View of an installed Rocky Mountain vault restroom building.",
        "imgId": "rockymtnExteriorImg2",
        "wallTexture": ["Horizontal Lap (upper)", "Field Stone (lower)"],
        "roofTexture": ["Cedar Shake"]
      },
      {
        "img": "images/buildings/vault-single-interior.jpg",
        "imgAlt": "View of the interior of a Rocky Mountain vault restroom building.",
        "imgId": "rockymtnInteriorImg1",
        "caption": "Interior with plastic fixtures."
      },
      {
        "img": "images/buildings/rockymtn/rockymtn-layout.png",
        "imgAlt": "Architecture layout of the Rocky Mountain vault restroom building.",
        "imgId": "rockymtnLayoutImg1",
        "caption": "Standard building layout."
      }
    ],
    "model": {
      "loaded": "false",
      "imgLoaded": "true",
      "dataHost": "sketchfab",
      "pressed": "false",
      "disabled": "false",
      "autocomplete": "off",
      "hdSize": "true",
      "id": "",
      "placeholderImg": "true",
      "img": "https://via.placeholder.com/720x405.png/F2F2F2/000000?text=placeholder+model",
      "imgAlt": "Front of the Rocky Mountain Building Model."
    }
  },
  "availableTextures": {
    "wall": {
      "subcategories": "true",
      "standard": {
        "Upper": [
          { "name": "boardBatt", "pressed": "true", "disabled": "true" },
          {
            "name": "horizontalLap",
            "pressed": "false",
            "disabled": "false",
            "placeholderImg": "true"
          }
        ],
        "Lower": [
          {
            "name": "flagstone",
            "pressed": "true",
            "disabled": "true",
            "placeholderImg": "true"
          },
          {
            "name": "riverRock",
            "pressed": "false",
            "disabled": "false",
            "placeholderImg": "true"
          },
          {
            "name": "napaValley",
            "pressed": "false",
            "disabled": "false",
            "placeholderImg": "true"
          }
        ]
      }
    },
    "roof": {
      "standard": [
        { "name": "cedarShake", "pressed": "true", "disabled": "true" }
      ],
      "optional": [
        { "name": "ribbedMetal", "pressed": "false", "disabled": "false" }
      ]
    }
  },
  "availableColors": [
    {
      "name": "amberRose",
      "pressed": "false",
      "disabled": "false"
    },
    {
      "name": "berryMauve",
      "pressed": "false",
      "disabled": "false"
    },
    {
      "name": "buckskin",
      "pressed": "false",
      "disabled": "false"
    },
    {
      "name": "cappuccinoCream",
      "pressed": "false",
      "disabled": "false"
    },
    {
      "name": "charcoalGray",
      "pressed": "false",
      "disabled": "false"
    },
    {
      "name": "cocoaMilk",
      "pressed": "false",
      "disabled": "false"
    },
    {
      "name": "evergreen",
      "pressed": "false",
      "disabled": "false",
      "placeholderImg": "true"
    },
    {
      "name": "georgiaBrick",
      "pressed": "false",
      "disabled": "false"
    },
    {
      "name": "goldenBeige",
      "pressed": "false",
      "disabled": "false"
    },
    {
      "name": "graniteRock",
      "pressed": "false",
      "disabled": "false"
    },
    {
      "name": "hunterGreen",
      "pressed": "false",
      "disabled": "false",
      "placeholderImg": "true"
    },
    {
      "name": "javaBrown",
      "pressed": "false",
      "disabled": "false"
    },
    {
      "name": "libertyTan",
      "pressed": "false",
      "disabled": "false"
    },
    {
      "name": "malibuTaupe",
      "pressed": "false",
      "disabled": "false"
    },
    {
      "name": "mochaCaramel",
      "pressed": "false",
      "disabled": "false"
    },
    {
      "name": "naturalHoney",
      "pressed": "false",
      "disabled": "false"
    },
    {
      "name": "nussBrown",
      "pressed": "false",
      "disabled": "false"
    },
    {
      "name": "oatmealBuff",
      "pressed": "false",
      "disabled": "false"
    },
    {
      "name": "puebloGold",
      "pressed": "false",
      "disabled": "false"
    },
    {
      "name": "ravenBlack",
      "pressed": "false",
      "disabled": "false"
    },
    {
      "name": "richEarth",
      "pressed": "false",
      "disabled": "false"
    },
    {
      "name": "rosewood",
      "pressed": "false",
      "disabled": "false"
    },
    {
      "name": "sageGreen",
      "pressed": "false",
      "disabled": "false",
      "placeholderImg": "true"
    },
    {
      "name": "salsaRed",
      "pressed": "false",
      "disabled": "false"
    },
    {
      "name": "sandBeige",
      "pressed": "false",
      "disabled": "false"
    },
    {
      "name": "sunBronze",
      "pressed": "false",
      "disabled": "false"
    },
    {
      "name": "toastedAlmond",
      "pressed": "false",
      "disabled": "false"
    },
    {
      "name": "westernWheat",
      "pressed": "false",
      "disabled": "false"
    }
  ],
  "fixtureColors": [
    {
      "name": "white",
      "pressed": "false",
      "disabled": "false",
      "placeholderImg": "true"
    },
    {
      "name": "stainlessSteel",
      "pressed": "false",
      "disabled": "false",
      "placeholderImg": "true"
    }
  ],
  "colorBtns": [
    {
      "text": "Wall",
      "id": "btn-wall-colors",
      "dataAttributes": {
        "data-selected-color": "#c49c79",
        "data-category": "wall"
      },
      "ariaControls": "tab-wall-roof-colors",
      "pressed": "true",
      "disabled": "true"
    },
    {
      "text": "Roof",
      "id": "btn-roof-colors",
      "dataAttributes": {
        "data-selected-color": "#523e33",
        "data-category": "roof"
      },
      "ariaControls": "tab-wall-roof-colors",
      "pressed": "false",
      "disabled": "false"
    },
    {
      "text": "Fixtures",
      "id": "btn-fixtures-colors",
      "dataAttributes": {
        "data-selected-color": "#ffffff",
        "data-category": "fixture"
      },
      "ariaControls": "tab-fixtures-colors",
      "pressed": "false",
      "disabled": "false"
    }
  ]
}
