{
  "docHead": {
    "title": "Cheyenne Restroom with Shower | CXT Prefabricated Concrete Buildings",
    "description": "View our prefabricated concrete Cheyenne restroom with shower.",
    "devPath": "../../"
  },
  "page": {
    "title": "Cheyenne"
  },
  "breadcrumbs": [
    {
      "linkName": "home",
      "text": "Home",
      "pressed": "false",
      "disabled": "false"
    },
    {
      "text": "Products",
      "linkName": "products",
      "pressed": "false",
      "disabled": "false"
    },
    {
      "text": "Buildings",
      "linkName": "products-buildings",
      "pressed": "false",
      "disabled": "false"
    },
    {
      "text": "Shower",
      "linkName": "buildings-shower",
      "pressed": "false",
      "disabled": "false"
    },
    {
      "currPage": "true",
      "linkName": "building-cheyenne",
      "text": "Cheyenne",
      "pressed": "true",
      "disabled": "true"
    }
  ],
  "name": "Cheyenne",
  "specs": {
    "Use": "Multi-User Restrooms with Shower",
    "Size": "26' x 30'",
    "Total Number of Restrooms": "2",
    "Total Number of Toilets": "6",
    "Total Number of ADA Toilets": "2",
    "Total Number of Sinks": "4",
    "Total Number of Showers": "4",
    "Total Number of ADA Showers": "1",
    "Plumbing": "Yes",
    "Wind Load": "150 mph",
    "Snow Load": "250 lb/ft<sup>2</sup>",
    "Floor Load": "400 lb/ft<sup>2</sup>",
    "Earthquake Load": "Seismic group 1 design category E"
  },
  "resources": {
    "linkName": "cheyenne",
    "specs": [
      {
        "resource": "spec",
        "text": "Cheyenne Specifications",
        "pressed": "false",
        "disabled": "false"
      }
    ],
    "drawings": [
      {
        "resource": "spec-drawing",
        "text": "Cheyenne Drawings",
        "pressed": "false",
        "disabled": "false"
      }
    ],
    "images": [
      {
        "img": "images/buildings/cheyenne/cheyenne.jpg",
        "imgAlt": "View of an installed an Cheyenne restroom with shower building.",
        "imgId": "cheyenneExteriorImg1",
        "wallTexture": ["Barnwood"],
        "roofTexture": ["Cedar Shake"]
      },
      {
        "img": "images/buildings/cheyenne/cheyenne2.jpg",
        "imgAlt": "View of an installed an Cheyenne restroom with shower building.",
        "imgId": "cheyenneExteriorImg2",
        "wallTexture": ["Horizontal Lap"],
        "roofTexture": ["Ribbed Metal"]
      },
      {
        "img": "images/buildings/cheyenne/cheyenne3.jpg",
        "imgAlt": "View of an installed an Cheyenne restroom with shower building.",
        "imgId": "cheyenneExteriorImg3",
        "wallTexture": ["Split Face"],
        "roofTexture": ["Ribbed Metal"]
      },
      {
        "img": "images/buildings/cheyenne/cheyenne4.jpg",
        "imgAlt": "View of an installed an Cheyenne restroom with shower building.",
        "imgId": "cheyenneExteriorImg4",
        "wallTexture": ["Barnwood"],
        "roofTexture": ["Cedar Shake"]
      },
      {
        "img": "images/buildings/cheyenne/cheyenne-interior-steel.jpg",
        "imgAlt": "View of the interior of an Cheyenne restroom with shower building with steel fixtures.",
        "imgId": "cheyenneInteriorImg1",
        "caption": "Interior with stainless steel fixtures."
      },
      {
        "img": "images/buildings/cheyenne/cheyenne-layout.png",
        "imgAlt": "Architecture layout of the Cheyenne restroom with shower building.",
        "imgId": "cheyenneLayoutImg1",
        "caption": "Standard building layout."
      }
    ],
    "model": {
      "loaded": "false",
      "imgLoaded": "true",
      "dataHost": "sketchfab",
      "pressed": "false",
      "disabled": "false",
      "autocomplete": "off",
      "hdSize": "true",
      "id": "",
      "placeholderImg": "true",
      "img": "https://via.placeholder.com/720x405.png/F2F2F2/000000?text=placeholder+model",
      "imgAlt": "Front of the Cheyenne Building Model."
    }
  },
  "availableTextures": {
    "wall": {
      "standard": [
        { "name": "barnwood", "pressed": "true", "disabled": "true" }
      ],
      "optional": [
        { "name": "exposedAggregate", "pressed": "false", "disabled": "false" },
        { "name": "splitFace", "pressed": "false", "disabled": "false" },
        { "name": "stucco", "pressed": "false", "disabled": "false" }
      ]
    },
    "roof": {
      "standard": [
        { "name": "cedarShake", "pressed": "true", "disabled": "true" }
      ],
      "optional": [
        { "name": "ribbedMetal", "pressed": "false", "disabled": "false" }
      ]
    }
  },
  "availableColors": [
    {
      "name": "amberRose",
      "pressed": "false",
      "disabled": "false"
    },
    {
      "name": "berryMauve",
      "pressed": "false",
      "disabled": "false"
    },
    {
      "name": "buckskin",
      "pressed": "false",
      "disabled": "false"
    },
    {
      "name": "cappuccinoCream",
      "pressed": "false",
      "disabled": "false"
    },
    {
      "name": "charcoalGray",
      "pressed": "false",
      "disabled": "false"
    },
    {
      "name": "cocoaMilk",
      "pressed": "false",
      "disabled": "false"
    },
    {
      "name": "evergreen",
      "pressed": "false",
      "disabled": "false",
      "placeholderImg": "true"
    },
    {
      "name": "georgiaBrick",
      "pressed": "false",
      "disabled": "false"
    },
    {
      "name": "goldenBeige",
      "pressed": "false",
      "disabled": "false"
    },
    {
      "name": "graniteRock",
      "pressed": "false",
      "disabled": "false"
    },
    {
      "name": "hunterGreen",
      "pressed": "false",
      "disabled": "false",
      "placeholderImg": "true"
    },
    {
      "name": "javaBrown",
      "pressed": "false",
      "disabled": "false"
    },
    {
      "name": "libertyTan",
      "pressed": "false",
      "disabled": "false"
    },
    {
      "name": "malibuTaupe",
      "pressed": "false",
      "disabled": "false"
    },
    {
      "name": "mochaCaramel",
      "pressed": "false",
      "disabled": "false"
    },
    {
      "name": "naturalHoney",
      "pressed": "false",
      "disabled": "false"
    },
    {
      "name": "nussBrown",
      "pressed": "false",
      "disabled": "false"
    },
    {
      "name": "oatmealBuff",
      "pressed": "false",
      "disabled": "false"
    },
    {
      "name": "puebloGold",
      "pressed": "false",
      "disabled": "false"
    },
    {
      "name": "ravenBlack",
      "pressed": "false",
      "disabled": "false"
    },
    {
      "name": "richEarth",
      "pressed": "false",
      "disabled": "false"
    },
    {
      "name": "rosewood",
      "pressed": "false",
      "disabled": "false"
    },
    {
      "name": "sageGreen",
      "pressed": "false",
      "disabled": "false",
      "placeholderImg": "true"
    },
    {
      "name": "salsaRed",
      "pressed": "false",
      "disabled": "false"
    },
    {
      "name": "sandBeige",
      "pressed": "false",
      "disabled": "false"
    },
    {
      "name": "sunBronze",
      "pressed": "false",
      "disabled": "false"
    },
    {
      "name": "toastedAlmond",
      "pressed": "false",
      "disabled": "false"
    },
    {
      "name": "westernWheat",
      "pressed": "false",
      "disabled": "false"
    }
  ],
  "fixtureColors": [
    {
      "name": "white",
      "pressed": "false",
      "disabled": "false",
      "placeholderImg": "true"
    },
    {
      "name": "stainlessSteel",
      "pressed": "false",
      "disabled": "false",
      "placeholderImg": "true"
    }
  ],
  "colorBtns": [
    {
      "text": "Wall",
      "id": "btn-wall-colors",
      "dataAttributes": {
        "data-selected-color": "#c49c79",
        "data-category": "wall"
      },
      "ariaControls": "tab-wall-roof-colors",
      "pressed": "true",
      "disabled": "true"
    },
    {
      "text": "Roof",
      "id": "btn-roof-colors",
      "dataAttributes": {
        "data-selected-color": "#523e33",
        "data-category": "roof"
      },
      "ariaControls": "tab-wall-roof-colors",
      "pressed": "false",
      "disabled": "false"
    },
    {
      "text": "Fixtures",
      "id": "btn-fixtures-colors",
      "dataAttributes": {
        "data-selected-color": "#ffffff",
        "data-category": "fixture"
      },
      "ariaControls": "tab-fixtures-colors",
      "pressed": "false",
      "disabled": "false"
    }
  ]
}
