{
  "docHead": {
    "title": "Gunnison Vault Restrooms | CXT Prefabricated Concrete Buildings",
    "description": "View our prefabricated concrete Gunnison vault restroom.",
    "devPath": "../../"
  },
  "page": {
    "title": "Gunnison"
  },
  "breadcrumbs": [
    {
      "linkName": "home",
      "text": "Home",
      "pressed": "false",
      "disabled": "false"
    },
    {
      "text": "Products",
      "linkName": "products",
      "pressed": "false",
      "disabled": "false"
    },
    {
      "text": "Buildings",
      "linkName": "products-buildings",
      "pressed": "false",
      "disabled": "false"
    },
    {
      "text": "Vault",
      "linkName": "buildings-vault",
      "pressed": "false",
      "disabled": "false"
    },
    {
      "currPage": "true",
      "linkName": "building-gunnison",
      "text": "Gunnison",
      "pressed": "true",
      "disabled": "true"
    }
  ],
  "name": "Gunnison",
  "specs": {
    "Use": "1 Single-User Restroom",
    "Size": "6' 6\" x 14' 8\"",
    "Total Number of Restrooms": "1",
    "Total Number of Toilets": "1",
    "Total Number of ADA Toilets": "1",
    "Total Number of Sinks": "1",
    "Total Number of Showers": "0",
    "Total Number of ADA Showers": "0",
    "Total Number of Waste Clean-out Hatches": "1",
    "Total Number of Waste Vaults": "1",
    "Plumbing": "No",
    "Wind Load": "150 mph",
    "Snow Load": "350 lb/ft<sup>2</sup>",
    "Floor Load": "400 lb/ft<sup>2</sup>",
    "Earthquake Load": "Seismic group 1 design category E"
  },
  "resources": {
    "linkName": "gunnison",
    "specs": [
      {
        "resource": "spec",
        "text": "Gunnison Specifications",
        "pressed": "false",
        "disabled": "false"
      }
    ],
    "drawings": [
      {
        "resource": "spec-drawing-left-hand",
        "text": "Gunnison Left Hand Drawings",
        "pressed": "false",
        "disabled": "false"
      },
      {
        "resource": "spec-drawing-left-hand-screen",
        "text": "Gunnison Left Hand with Screen Drawings",
        "pressed": "false",
        "disabled": "false"
      },
      {
        "resource": "spec-drawing-right-hand",
        "text": "Gunnison Right Hand Drawings",
        "pressed": "false",
        "disabled": "false"
      },
      {
        "resource": "spec-drawing-right-hand-screen",
        "text": "Gunnison Right Hand with Screen Drawings",
        "pressed": "false",
        "disabled": "false"
      }
    ],
    "images": [
      {
        "img": "images/buildings/gunnison/gunnison.jpg",
        "imgAlt": "View of an installed Gunnison vault restroom building.",
        "imgId": "gunnisonExteriorImg1",
        "wallTexture": ["Split Face"],
        "roofTexture": ["Cedar Shake"]
      },
      {
        "img": "images/buildings/gunnison/gunnison2.jpg",
        "imgAlt": "View of an installed Gunnison vault restroom building.",
        "imgId": "gunnisonExteriorImg2",
        "wallTexture": ["Barnwood"],
        "roofTexture": ["Cedar Shake"]
      },
      {
        "img": "images/buildings/gunnison/gunnison3.jpg",
        "imgAlt": "View of an installed Gunnison vault restroom building.",
        "imgId": "gunnisonExteriorImg3",
        "wallTexture": ["Barnwood"],
        "roofTexture": ["Cedar Shake"]
      },
      {
        "img": "images/buildings/gunnison/gunnison4.jpg",
        "imgAlt": "View of an installed Gunnison vault restroom building.",
        "imgId": "gunnisonExteriorImg4",
        "wallTexture": ["Split Face"],
        "roofTexture": ["Ribbed Metal"]
      },
      {
        "img": "images/buildings/vault-single-interior.jpg",
        "imgAlt": "View of the interior of an Gunnison vault restroom building.",
        "imgId": "gunnisonInteriorImg1",
        "caption": "Interior with plastic fixtures."
      },
      {
        "img": "images/buildings/gunnison/gunnison-layout.png",
        "imgAlt": "Architecture layout of the Gunnison vault restroom building.",
        "imgId": "gunnisonLayoutImg1",
        "caption": "Standard building layout."
      }
    ],
    "model": {
      "loaded": "false",
      "imgLoaded": "true",
      "dataHost": "sketchfab",
      "pressed": "false",
      "disabled": "false",
      "autocomplete": "off",
      "hdSize": "true",
      "id": "",
      "placeholderImg": "true",
      "img": "https://via.placeholder.com/720x405.png/F2F2F2/000000?text=placeholder+model",
      "imgAlt": "Front of the Gunnison Building Model."
    }
  },
  "availableTextures": {
    "wall": {
      "standard": [
        { "name": "barnwood", "pressed": "true", "disabled": "true" }
      ],
      "optional": [
        { "name": "exposedAggregate", "pressed": "false", "disabled": "false" },
        { "name": "splitFace", "pressed": "false", "disabled": "false" },
        { "name": "stucco", "pressed": "false", "disabled": "false" }
      ]
    },
    "roof": {
      "standard": [
        { "name": "cedarShake", "pressed": "true", "disabled": "true" }
      ],
      "optional": [
        { "name": "ribbedMetal", "pressed": "false", "disabled": "false" }
      ]
    }
  },
  "availableColors": [
    {
      "name": "amberRose",
      "pressed": "false",
      "disabled": "false"
    },
    {
      "name": "berryMauve",
      "pressed": "false",
      "disabled": "false"
    },
    {
      "name": "buckskin",
      "pressed": "false",
      "disabled": "false"
    },
    {
      "name": "cappuccinoCream",
      "pressed": "false",
      "disabled": "false"
    },
    {
      "name": "charcoalGray",
      "pressed": "false",
      "disabled": "false"
    },
    {
      "name": "cocoaMilk",
      "pressed": "false",
      "disabled": "false"
    },
    {
      "name": "evergreen",
      "pressed": "false",
      "disabled": "false",
      "placeholderImg": "true"
    },
    {
      "name": "georgiaBrick",
      "pressed": "false",
      "disabled": "false"
    },
    {
      "name": "goldenBeige",
      "pressed": "false",
      "disabled": "false"
    },
    {
      "name": "graniteRock",
      "pressed": "false",
      "disabled": "false"
    },
    {
      "name": "hunterGreen",
      "pressed": "false",
      "disabled": "false",
      "placeholderImg": "true"
    },
    {
      "name": "javaBrown",
      "pressed": "false",
      "disabled": "false"
    },
    {
      "name": "libertyTan",
      "pressed": "false",
      "disabled": "false"
    },
    {
      "name": "malibuTaupe",
      "pressed": "false",
      "disabled": "false"
    },
    {
      "name": "mochaCaramel",
      "pressed": "false",
      "disabled": "false"
    },
    {
      "name": "naturalHoney",
      "pressed": "false",
      "disabled": "false"
    },
    {
      "name": "nussBrown",
      "pressed": "false",
      "disabled": "false"
    },
    {
      "name": "oatmealBuff",
      "pressed": "false",
      "disabled": "false"
    },
    {
      "name": "puebloGold",
      "pressed": "false",
      "disabled": "false"
    },
    {
      "name": "ravenBlack",
      "pressed": "false",
      "disabled": "false"
    },
    {
      "name": "richEarth",
      "pressed": "false",
      "disabled": "false"
    },
    {
      "name": "rosewood",
      "pressed": "false",
      "disabled": "false"
    },
    {
      "name": "sageGreen",
      "pressed": "false",
      "disabled": "false",
      "placeholderImg": "true"
    },
    {
      "name": "salsaRed",
      "pressed": "false",
      "disabled": "false"
    },
    {
      "name": "sandBeige",
      "pressed": "false",
      "disabled": "false"
    },
    {
      "name": "sunBronze",
      "pressed": "false",
      "disabled": "false"
    },
    {
      "name": "toastedAlmond",
      "pressed": "false",
      "disabled": "false"
    },
    {
      "name": "westernWheat",
      "pressed": "false",
      "disabled": "false"
    }
  ],
  "fixtureColors": [
    {
      "name": "white",
      "pressed": "false",
      "disabled": "false",
      "placeholderImg": "true"
    },
    {
      "name": "stainlessSteel",
      "pressed": "false",
      "disabled": "false",
      "placeholderImg": "true"
    }
  ],
  "colorBtns": [
    {
      "text": "Wall",
      "id": "btn-wall-colors",
      "dataAttributes": {
        "data-selected-color": "#c49c79",
        "data-category": "wall"
      },
      "ariaControls": "tab-wall-roof-colors",
      "pressed": "true",
      "disabled": "true"
    },
    {
      "text": "Roof",
      "id": "btn-roof-colors",
      "dataAttributes": {
        "data-selected-color": "#523e33",
        "data-category": "roof"
      },
      "ariaControls": "tab-wall-roof-colors",
      "pressed": "false",
      "disabled": "false"
    },
    {
      "text": "Fixtures",
      "id": "btn-fixtures-colors",
      "dataAttributes": {
        "data-selected-color": "#ffffff",
        "data-category": "fixture"
      },
      "ariaControls": "tab-fixtures-colors",
      "pressed": "false",
      "disabled": "false"
    }
  ]
}
