{
  "docHead": {
    "title": "Schweitzer I Utility Building | CXT Prefabricated Concrete Buildings",
    "description": "View our prefabricated concrete Schweitzer I utility building.",
    "devPath": "../../"
  },
  "page": {
    "title": "Schweitzer I"
  },
  "breadcrumbs": [
    {
      "linkName": "home",
      "text": "Home",
      "pressed": "false",
      "disabled": "false"
    },
    {
      "text": "Products",
      "linkName": "products",
      "pressed": "false",
      "disabled": "false"
    },
    {
      "text": "Buildings",
      "linkName": "products-buildings",
      "pressed": "false",
      "disabled": "false"
    },
    {
      "text": "Utility",
      "linkName": "buildings-utility",
      "pressed": "false",
      "disabled": "false"
    },
    {
      "currPage": "true",
      "linkName": "building-schweitzer1",
      "text": "SchweitzerI",
      "pressed": "true",
      "disabled": "true"
    }
  ],
  "name": "Schweitzer I",
  "specs": {
    "Use": "Utility/Storage",
    "Size": "10' 6\" x 12'",
    "Total Number of Restrooms": "0",
    "Total Number of Toilets": "0",
    "Total Number of ADA Toilets": "0",
    "Total Number of Sinks": "0",
    "Total Number of Showers": "0",
    "Total Number of ADA Showers": "0",
    "Plumbing": "No",
    "Wind Load": "150 mph",
    "Snow Load": "350 lb/ft<sup>2</sup>",
    "Floor Load": "400 lb/ft<sup>2</sup>",
    "Earthquake Load": "Seismic group 1 design category E"
  },
  "resources": {
    "linkName": "schweitzer1",
    "specs": [
      {
        "resource": "spec",
        "text": "Schweitzer Specifications",
        "pressed": "false",
        "disabled": "false"
      }
    ],
    "drawings": [
      {
        "resource": "spec-drawing",
        "text": "Schweitzer Drawings",
        "pressed": "false",
        "disabled": "false"
      }
    ],
    "images": [
      {
        "img": "images/buildings/schweitzerI/schweitzerI.jpg",
        "imgAlt": "View of an installed Schweitzer 1 utility building.",
        "imgId": "schweitzerIExteriorImg1",
        "wallTexture": ["Split Face"],
        "roofTexture": ["Cedar Shake"]
      },
      {
        "img": "images/buildings/schweitzerI/schweitzerI2.jpg",
        "imgAlt": "View of an installed Schweitzer 1 utility building.",
        "imgId": "schweitzerIExteriorImg2",
        "wallTexture": ["Barnwood"],
        "roofTexture": ["Cedar Shake"]
      },
      {
        "img": "images/buildings/schweitzerI/schweitzerI3.jpg",
        "imgAlt": "View of an installed Schweitzer 1 utility building.",
        "imgId": "schweitzerIExteriorImg3",
        "wallTexture": ["Stucco"],
        "roofTexture": ["Cedar Shake"]
      },
      {
        "img": "images/buildings/schweitzerI/schweitzerI-interior.jpg",
        "imgAlt": "View of the interior of a Schweitzer 1 utility building.",
        "imgId": "schweitzerIInteriorImg1",
        "caption": "Interior of building."
      },
      {
        "img": "images/buildings/schweitzerI/schweitzerI-layout.png",
        "imgAlt": "Architecture layout of the Schweitzer 1 utility building.",
        "imgId": "schweitzerILayoutImg1",
        "caption": "Standard building layout."
      }
    ],
    "model": {
      "loaded": "false",
      "imgLoaded": "true",
      "dataHost": "sketchfab",
      "pressed": "false",
      "disabled": "false",
      "autocomplete": "off",
      "hdSize": "true",
      "id": "",
      "placeholderImg": "true",
      "img": "https://via.placeholder.com/720x405.png/F2F2F2/000000?text=placeholder+model",
      "imgAlt": "Front of the Schweitzer I Building Model."
    }
  },
  "availableTextures": {
    "wall": {
      "standard": [
        { "name": "barnwood", "pressed": "true", "disabled": "true" }
      ],
      "optional": [
        { "name": "exposedAggregate", "pressed": "false", "disabled": "false" },
        { "name": "splitFace", "pressed": "false", "disabled": "false" },
        { "name": "stucco", "pressed": "false", "disabled": "false" }
      ]
    },
    "roof": {
      "standard": [
        { "name": "cedarShake", "pressed": "true", "disabled": "true" }
      ],
      "optional": [
        { "name": "ribbedMetal", "pressed": "false", "disabled": "false" }
      ]
    }
  },
  "availableColors": [
    {
      "name": "amberRose",
      "pressed": "false",
      "disabled": "false"
    },
    {
      "name": "berryMauve",
      "pressed": "false",
      "disabled": "false"
    },
    {
      "name": "buckskin",
      "pressed": "false",
      "disabled": "false"
    },
    {
      "name": "cappuccinoCream",
      "pressed": "false",
      "disabled": "false"
    },
    {
      "name": "charcoalGray",
      "pressed": "false",
      "disabled": "false"
    },
    {
      "name": "cocoaMilk",
      "pressed": "false",
      "disabled": "false"
    },
    {
      "name": "evergreen",
      "pressed": "false",
      "disabled": "false",
      "placeholderImg": "true"
    },
    {
      "name": "georgiaBrick",
      "pressed": "false",
      "disabled": "false"
    },
    {
      "name": "goldenBeige",
      "pressed": "false",
      "disabled": "false"
    },
    {
      "name": "graniteRock",
      "pressed": "false",
      "disabled": "false"
    },
    {
      "name": "hunterGreen",
      "pressed": "false",
      "disabled": "false",
      "placeholderImg": "true"
    },
    {
      "name": "javaBrown",
      "pressed": "false",
      "disabled": "false"
    },
    {
      "name": "libertyTan",
      "pressed": "false",
      "disabled": "false"
    },
    {
      "name": "malibuTaupe",
      "pressed": "false",
      "disabled": "false"
    },
    {
      "name": "mochaCaramel",
      "pressed": "false",
      "disabled": "false"
    },
    {
      "name": "naturalHoney",
      "pressed": "false",
      "disabled": "false"
    },
    {
      "name": "nussBrown",
      "pressed": "false",
      "disabled": "false"
    },
    {
      "name": "oatmealBuff",
      "pressed": "false",
      "disabled": "false"
    },
    {
      "name": "puebloGold",
      "pressed": "false",
      "disabled": "false"
    },
    {
      "name": "ravenBlack",
      "pressed": "false",
      "disabled": "false"
    },
    {
      "name": "richEarth",
      "pressed": "false",
      "disabled": "false"
    },
    {
      "name": "rosewood",
      "pressed": "false",
      "disabled": "false"
    },
    {
      "name": "sageGreen",
      "pressed": "false",
      "disabled": "false",
      "placeholderImg": "true"
    },
    {
      "name": "salsaRed",
      "pressed": "false",
      "disabled": "false"
    },
    {
      "name": "sandBeige",
      "pressed": "false",
      "disabled": "false"
    },
    {
      "name": "sunBronze",
      "pressed": "false",
      "disabled": "false"
    },
    {
      "name": "toastedAlmond",
      "pressed": "false",
      "disabled": "false"
    },
    {
      "name": "westernWheat",
      "pressed": "false",
      "disabled": "false"
    }
  ],
  "fixtureColors": [
    {
      "name": "white",
      "pressed": "false",
      "disabled": "false",
      "placeholderImg": "true"
    },
    {
      "name": "stainlessSteel",
      "pressed": "false",
      "disabled": "false",
      "placeholderImg": "true"
    }
  ],
  "colorBtns": [
    {
      "text": "Wall",
      "id": "btn-wall-colors",
      "dataAttributes": {
        "data-selected-color": "#c49c79",
        "data-category": "wall"
      },
      "ariaControls": "tab-wall-roof-colors",
      "pressed": "true",
      "disabled": "true"
    },
    {
      "text": "Roof",
      "id": "btn-roof-colors",
      "dataAttributes": {
        "data-selected-color": "#523e33",
        "data-category": "roof"
      },
      "ariaControls": "tab-wall-roof-colors",
      "pressed": "false",
      "disabled": "false"
    },
    {
      "text": "Fixtures",
      "id": "btn-fixtures-colors",
      "dataAttributes": {
        "data-selected-color": "#ffffff",
        "data-category": "fixture"
      },
      "ariaControls": "tab-fixtures-colors",
      "pressed": "false",
      "disabled": "false"
    }
  ]
}
