{
  "products-buildings": true,
  "docHead": {
    "title": "Buildings | CXT Prefabricated Concrete Buildings",
    "description": "View all our of prefabricated concrete buildings.",
    "devPath": "../../"
  },
  "page": {
    "title": "Buildings",
    "name": "buildings"
  },
  "breadcrumbs": [
    {
      "linkName": "home",
      "text": "Home",
      "pressed": "false",
      "disabled": "false"
    },
    {
      "linkName": "products",
      "text": "Products",
      "pressed": "false",
      "disabled": "false"
    },
    {
      "currPage": "true",
      "linkName": "products-buildings",
      "text": "Buildings",
      "pressed": "true",
      "disabled": "true"
    }
  ],
  "sort": {
    "title": "Sort By:",
    "options": [
      {
        "dataAttributes": {
          "data-category": "alphabetical",
          "data-order": "ascending"
        },
        "pressed": "true",
        "disabled": "true",
        "autocomplete": "off",
        "displayText": "A-Z"
      },
      {
        "dataAttributes": {
          "data-category": "alphabetical",
          "data-order": "descending"
        },
        "pressed": "false",
        "disabled": "false",
        "autocomplete": "off",
        "displayText": "Z-A"
      }
    ]
  },
  "buildings": [
    {
      "buildingName": "arapahoe",
      "linkName": "building-arapahoe",
      "pressed": "false",
      "disabled": "false",
      "text": "Arapahoe"
    },
    {
      "buildingName": "cascadian",
      "linkName": "building-cascadian",
      "pressed": "false",
      "disabled": "false",
      "text": "Cascadian"
    },
    {
      "buildingName": "cascadian-double",
      "linkName": "building-cascadian-double",
      "pressed": "false",
      "disabled": "false",
      "text": "Double Cascadian"
    },
    {
      "buildingName": "cheyenne",
      "linkName": "building-cheyenne",
      "pressed": "false",
      "disabled": "false",
      "text": "Cheyenne"
    },
    {
      "buildingName": "cortez",
      "linkName": "building-cortez",
      "pressed": "false",
      "disabled": "false",
      "text": "Cortez"
    },
    {
      "buildingName": "dakota",
      "linkName": "building-dakota",
      "pressed": "false",
      "disabled": "false",
      "placeholderImg": "true",
      "text": "Dakota"
    },
    {
      "buildingName": "denali",
      "linkName": "building-denali",
      "pressed": "false",
      "disabled": "false",
      "text": "Denali"
    },
    {
      "buildingName": "diablo",
      "linkName": "building-diablo",
      "pressed": "false",
      "disabled": "false",
      "placeholderImg": "true",
      "text": "Diablo"
    },
    {
      "buildingName": "fontana",
      "linkName": "building-fontana",
      "pressed": "false",
      "disabled": "false",
      "text": "Fontana"
    },
    {
      "buildingName": "gunnison",
      "linkName": "building-gunnison",
      "pressed": "false",
      "disabled": "false",
      "text": "Gunnison"
    },
    {
      "buildingName": "kodiak",
      "linkName": "building-kodiak",
      "pressed": "false",
      "disabled": "false",
      "text": "Kodiak"
    },
    {
      "buildingName": "malibu",
      "linkName": "building-malibu",
      "pressed": "false",
      "disabled": "false",
      "text": "Malibu"
    },
    {
      "buildingName": "mendocino",
      "linkName": "building-mendocino",
      "pressed": "false",
      "disabled": "false",
      "placeholderImg": "true",
      "text": "Mendocino"
    },
    {
      "buildingName": "montrose",
      "linkName": "building-montrose",
      "pressed": "false",
      "disabled": "false",
      "text": "Montrose"
    },
    {
      "buildingName": "navajo",
      "linkName": "building-navajo",
      "pressed": "false",
      "disabled": "false",
      "text": "Navajo"
    },
    {
      "buildingName": "ozark-1",
      "linkName": "building-ozark1",
      "pressed": "false",
      "disabled": "false",
      "text": "Ozark I"
    },
    {
      "buildingName": "ozark-2",
      "linkName": "building-ozark2",
      "pressed": "false",
      "disabled": "false",
      "text": "Ozark II"
    },
    {
      "buildingName": "pioneer",
      "linkName": "building-pioneer",
      "pressed": "false",
      "disabled": "false",
      "text": "Pioneer"
    },
    {
      "buildingName": "pomona",
      "linkName": "building-pomona",
      "pressed": "false",
      "disabled": "false",
      "text": "Pomona"
    },
    {
      "buildingName": "rainier",
      "linkName": "building-rainier",
      "pressed": "false",
      "disabled": "false",
      "text": "Rainier"
    },
    {
      "buildingName": "rocky-mtn",
      "linkName": "building-rocky-mtn",
      "pressed": "false",
      "disabled": "false",
      "text": "Rocky Mountain"
    },
    {
      "buildingName": "rocky-mtn-double",
      "linkName": "building-rocky-mtn-double",
      "pressed": "false",
      "disabled": "false",
      "text": "Double Rocky Mountain"
    },
    {
      "buildingName": "schweitzer-1",
      "linkName": "building-schweitzer1",
      "pressed": "false",
      "disabled": "false",
      "text": "Schweitzer I"
    },
    {
      "buildingName": "schweitzer-2",
      "linkName": "building-schweitzer2",
      "pressed": "false",
      "disabled": "false",
      "text": "Schweitzer II"
    },
    {
      "buildingName": "taos",
      "linkName": "building-taos",
      "pressed": "false",
      "disabled": "false",
      "text": "Taos"
    },
    {
      "buildingName": "teton",
      "linkName": "building-teton",
      "pressed": "false",
      "disabled": "false",
      "placeholderImg": "true",
      "text": "Teton"
    },
    {
      "buildingName": "tioga",
      "linkName": "building-tioga",
      "pressed": "false",
      "disabled": "false",
      "text": "Tioga"
    }
  ],
  "filter": {
    "categories": [
      {
        "title": "Building Type",
        "category": "building-type",
        "btnPressed": "true",
        "btnDisabled": "false",
        "menuHidden": "false",
        "options": [
          {
            "title": "Restroom Only",
            "pressed": "false",
            "disabled": "false",
            "value": "restroom"
          },
          {
            "title": "Restroom with Shower",
            "pressed": "false",
            "disabled": "false",
            "value": "restroom-shower"
          },
          {
            "title": "Concession",
            "pressed": "false",
            "disabled": "false",
            "value": "concession"
          },
          {
            "title": "Utility",
            "pressed": "false",
            "disabled": "false",
            "value": "utility"
          }
        ]
      },
      {
        "title": "Size",
        "category": "building-size",
        "btnPressed": "false",
        "btnDisabled": "false",
        "menuHidden": "true",
        "options": [
          {
            "title": "6<sup>'</sup> 6<sup>\"</sup> x 14<sup>'</sup> 8<sup>\"</sup>",
            "pressed": "false",
            "disabled": "false",
            "value": "78x176"
          },
          {
            "title": "10<sup>'</sup> x 26<sup>'</sup>",
            "pressed": "false",
            "disabled": "false",
            "value": "120x312"
          },
          {
            "title": "10<sup>'</sup> 3<sup>\"</sup> x 17<sup>'</sup>",
            "pressed": "false",
            "disabled": "false",
            "value": "123x204"
          },
          {
            "title": "10<sup>'</sup> 3<sup>\"</sup> x 17<sup>'</sup> 2<sup>\"</sup>",
            "pressed": "false",
            "disabled": "false",
            "value": "123x206"
          },
          {
            "title": "10<sup>'</sup> 6<sup>\"</sup> x 12<sup>'</sup>",
            "pressed": "false",
            "disabled": "false",
            "value": "126x144"
          },
          {
            "title": "10<sup>'</sup> 6<sup>\"</sup> x 18<sup>'</sup> 8<sup>\"</sup>",
            "pressed": "false",
            "disabled": "false",
            "value": "126x224"
          },
          {
            "title": "10<sup>'</sup> 6<sup>\"</sup> x 20<sup>'</sup>",
            "pressed": "false",
            "disabled": "false",
            "value": "126x240"
          },
          {
            "title": "10<sup>'</sup> 6<sup>\"</sup> x 23<sup>'</sup> 8<sup>\"</sup>",
            "pressed": "false",
            "disabled": "false",
            "value": "126x284"
          },
          {
            "title": "11<sup>'</sup> 11<sup>\"</sup> x 14<sup>'</sup> 4<sup>\"</sup>",
            "pressed": "false",
            "disabled": "false",
            "value": "143x172"
          },
          {
            "title": "15<sup>'</sup> 8<sup>\"</sup> x 26<sup>'</sup>",
            "pressed": "false",
            "disabled": "false",
            "value": "188x312"
          },
          {
            "title": "20<sup>'</sup> x 26<sup>'</sup>",
            "pressed": "false",
            "disabled": "false",
            "value": "240x312"
          },
          {
            "title": "25<sup>'</sup> 8<sup>\"</sup> x 26<sup>'</sup> 4<sup>\"</sup>",
            "pressed": "false",
            "disabled": "false",
            "value": "308x316"
          },
          {
            "title": "26<sup>'</sup> x 30<sup>'</sup>",
            "pressed": "false",
            "disabled": "false",
            "value": "312x360"
          },
          {
            "title": "30<sup>'</sup> x 26<sup>'</sup>",
            "pressed": "false",
            "disabled": "false",
            "value": "360x312"
          }
        ]
      },
      {
        "title": "Restroom Type",
        "category": "restroom-type",
        "btnPressed": "false",
        "btnDisabled": "false",
        "menuHidden": "true",
        "options": [
          {
            "title": "Single-User",
            "pressed": "false",
            "disabled": "false",
            "value": "single-user"
          },
          {
            "title": "Multi-User",
            "pressed": "false",
            "disabled": "false",
            "value": "multi-user"
          },
          {
            "title": "Family-Assist",
            "pressed": "false",
            "disabled": "false",
            "value": "family-assist"
          }
        ]
      },
      {
        "title": "Plumbing",
        "category": "plumbing",
        "btnPressed": "false",
        "btnDisabled": "false",
        "menuHidden": "true",
        "options": [
          {
            "title": "Yes",
            "pressed": "false",
            "disabled": "false",
            "value": "yes"
          },
          {
            "title": "No",
            "pressed": "false",
            "disabled": "false",
            "value": "no"
          }
        ]
      },
      {
        "title": "Number: Restrooms",
        "category": "num-restroom",
        "btnPressed": "false",
        "btnDisabled": "false",
        "menuHidden": "true",
        "options": [
          {
            "title": "0",
            "pressed": "false",
            "disabled": "false",
            "value": "0"
          },
          {
            "title": "1",
            "pressed": "false",
            "disabled": "false",
            "value": "1"
          },
          {
            "title": "2",
            "pressed": "false",
            "disabled": "false",
            "value": "2"
          },
          {
            "title": "4",
            "pressed": "false",
            "disabled": "false",
            "value": "4"
          }
        ]
      },
      {
        "title": "Number: Toilets",
        "category": "num-toilet",
        "btnPressed": "false",
        "btnDisabled": "false",
        "menuHidden": "true",
        "options": [
          {
            "title": "0",
            "pressed": "false",
            "disabled": "false",
            "value": "0"
          },
          {
            "title": "1",
            "pressed": "false",
            "disabled": "false",
            "value": "1"
          },
          {
            "title": "2",
            "pressed": "false",
            "disabled": "false",
            "value": "2"
          },
          {
            "title": "4",
            "pressed": "false",
            "disabled": "false",
            "value": "4"
          },
          {
            "title": "6",
            "pressed": "false",
            "disabled": "false",
            "value": "6"
          }
        ]
      },
      {
        "title": "Number: ADA Toilets",
        "category": "num-toilet-ada",
        "btnPressed": "false",
        "btnDisabled": "false",
        "menuHidden": "true",
        "options": [
          {
            "title": "0",
            "pressed": "false",
            "disabled": "false",
            "value": "0"
          },
          {
            "title": "1",
            "pressed": "false",
            "disabled": "false",
            "value": "1"
          },
          {
            "title": "2",
            "pressed": "false",
            "disabled": "false",
            "value": "2"
          },
          {
            "title": "4",
            "pressed": "false",
            "disabled": "false",
            "value": "4"
          }
        ]
      },
      {
        "title": "Number: Sinks",
        "category": "num-sink",
        "btnPressed": "false",
        "btnDisabled": "false",
        "menuHidden": "true",
        "options": [
          {
            "title": "0",
            "pressed": "false",
            "disabled": "false",
            "value": "0"
          },
          {
            "title": "1",
            "pressed": "false",
            "disabled": "false",
            "value": "1"
          },
          {
            "title": "2",
            "pressed": "false",
            "disabled": "false",
            "value": "2"
          },
          {
            "title": "4",
            "pressed": "false",
            "disabled": "false",
            "value": "4"
          }
        ]
      },
      {
        "title": "Number: Showers",
        "category": "num-shower",
        "btnPressed": "false",
        "btnDisabled": "false",
        "menuHidden": "true",
        "options": [
          {
            "title": "0",
            "pressed": "false",
            "disabled": "false",
            "value": "0"
          },
          {
            "title": "1",
            "pressed": "false",
            "disabled": "false",
            "value": "1"
          },
          {
            "title": "2",
            "pressed": "false",
            "disabled": "false",
            "value": "2"
          },
          {
            "title": "4",
            "pressed": "false",
            "disabled": "false",
            "value": "4"
          }
        ]
      },
      {
        "title": "Number: ADA Showers",
        "category": "num-shower-ada",
        "btnPressed": "false",
        "btnDisabled": "false",
        "menuHidden": "true",
        "options": [
          {
            "title": "0",
            "pressed": "false",
            "disabled": "false",
            "value": "0"
          },
          {
            "title": "1",
            "pressed": "false",
            "disabled": "false",
            "value": "1"
          }
        ]
      }
    ]
  }
}
