{
  "buildings-shower": true,
  "docHead": {
    "title": "Restrooms with Shower | CXT Prefabricated Concrete Buildings",
    "description": "View our selection of prefabricated concrete flush restrooms with shower.",
    "devPath": "../../"
  },
  "page": {
    "title": "Restrooms with Shower",
    "name": "buildingsshower"
  },
  "breadcrumbs": [
    {
      "linkName": "home",
      "text": "Home",
      "pressed": "false",
      "disabled": "false"
    },
    {
      "linkName": "products",
      "text": "Products",
      "pressed": "false",
      "disabled": "false"
    },
    {
      "linkName": "products-buildings",
      "text": "Buildings",
      "pressed": "false",
      "disabled": "false"
    },
    {
      "currPage": "true",
      "linkName": "buildings-shower",
      "text": "Shower",
      "pressed": "true",
      "disabled": "true"
    }
  ],
  "sort": {
    "title": "Sort By:",
    "options": [
      {
        "dataAttributes": {
          "data-category": "alphabetical",
          "data-order": "ascending"
        },
        "pressed": "true",
        "disabled": "true",
        "autocomplete": "off",
        "displayText": "A-Z"
      },
      {
        "dataAttributes": {
          "data-category": "alphabetical",
          "data-order": "descending"
        },
        "pressed": "false",
        "disabled": "false",
        "autocomplete": "off",
        "displayText": "Z-A"
      }
    ]
  },
  "buildings": [
    {
      "buildingName": "cheyenne",
      "linkName": "building-cheyenne",
      "pressed": "false",
      "disabled": "false",
      "text": "Cheyenne"
    },
    {
      "buildingName": "diablo",
      "linkName": "building-diablo",
      "pressed": "false",
      "disabled": "false",
      "placeholderImg": "true",
      "text": "Diablo"
    },
    {
      "buildingName": "navajo",
      "linkName": "building-navajo",
      "pressed": "false",
      "disabled": "false",
      "text": "Navajo"
    },
    {
      "buildingName": "pioneer",
      "linkName": "building-pioneer",
      "pressed": "false",
      "disabled": "false",
      "text": "Pioneer"
    },
    {
      "buildingName": "rainier",
      "linkName": "building-rainier",
      "pressed": "false",
      "disabled": "false",
      "text": "Rainier"
    },
    {
      "buildingName": "teton",
      "linkName": "building-teton",
      "pressed": "false",
      "disabled": "false",
      "placeholderImg": "true",
      "text": "Teton"
    }
  ],
  "filter": {
    "categories": [
      {
        "title": "Building Type",
        "category": "building-type",
        "btnPressed": "true",
        "btnDisabled": "false",
        "menuHidden": "false",
        "options": [
          {
            "title": "Restroom with Shower",
            "pressed": "true",
            "disabled": "false",
            "value": "restroom-shower",
            "inputDisabled": "true",
            "checked": "true"
          }
        ]
      },
      {
        "title": "Size",
        "category": "building-size",
        "btnPressed": "false",
        "btnDisabled": "false",
        "menuHidden": "true",
        "options": [
          {
            "title": "10<sup>'</sup> 6<sup>\"</sup> x 12<sup>'</sup>",
            "pressed": "false",
            "disabled": "false",
            "value": "126x144"
          },
          {
            "title": "10<sup>'</sup> 6<sup>\"</sup> x 23<sup>'</sup> 8<sup>\"</sup>",
            "pressed": "false",
            "disabled": "false",
            "value": "126x284"
          },
          {
            "title": "20<sup>'</sup> x 26<sup>'</sup>",
            "pressed": "false",
            "disabled": "false",
            "value": "240x312"
          },
          {
            "title": "26<sup>'</sup> x 30<sup>'</sup>",
            "pressed": "false",
            "disabled": "false",
            "value": "312x360"
          }
        ]
      },
      {
        "title": "Restroom Type",
        "category": "restroom-type",
        "btnPressed": "false",
        "btnDisabled": "false",
        "menuHidden": "true",
        "options": [
          {
            "title": "Single-User",
            "pressed": "false",
            "disabled": "false",
            "value": "single-user"
          },
          {
            "title": "Multi-User",
            "pressed": "false",
            "disabled": "false",
            "value": "multi-user"
          },
          {
            "title": "Family-Assist",
            "pressed": "false",
            "disabled": "false",
            "value": "family-assist"
          }
        ]
      },
      {
        "title": "Plumbing",
        "category": "plumbing",
        "btnPressed": "false",
        "btnDisabled": "false",
        "menuHidden": "true",
        "options": [
          {
            "title": "Yes",
            "pressed": "true",
            "disabled": "false",
            "value": "yes",
            "inputDisabled": "true",
            "checked": "true"
          }
        ]
      },
      {
        "title": "Number: Restrooms",
        "category": "num-restroom",
        "btnPressed": "false",
        "btnDisabled": "false",
        "menuHidden": "true",
        "options": [
          {
            "title": "1",
            "pressed": "false",
            "disabled": "false",
            "value": "1"
          },
          {
            "title": "2",
            "pressed": "false",
            "disabled": "false",
            "value": "2"
          },
          {
            "title": "4",
            "pressed": "false",
            "disabled": "false",
            "value": "4"
          }
        ]
      },
      {
        "title": "Number: Toilets",
        "category": "num-toilet",
        "btnPressed": "false",
        "btnDisabled": "false",
        "menuHidden": "true",
        "options": [
          {
            "title": "1",
            "pressed": "false",
            "disabled": "false",
            "value": "1"
          },
          {
            "title": "2",
            "pressed": "false",
            "disabled": "false",
            "value": "2"
          },
          {
            "title": "4",
            "pressed": "false",
            "disabled": "false",
            "value": "4"
          },
          {
            "title": "6",
            "pressed": "false",
            "disabled": "false",
            "value": "6"
          }
        ]
      },
      {
        "title": "Number: ADA Toilets",
        "category": "num-toilet-ada",
        "btnPressed": "false",
        "btnDisabled": "false",
        "menuHidden": "true",
        "options": [
          {
            "title": "1",
            "pressed": "false",
            "disabled": "false",
            "value": "1"
          },
          {
            "title": "2",
            "pressed": "false",
            "disabled": "false",
            "value": "2"
          },
          {
            "title": "4",
            "pressed": "false",
            "disabled": "false",
            "value": "4"
          }
        ]
      },
      {
        "title": "Number: Sinks",
        "category": "num-sink",
        "btnPressed": "false",
        "btnDisabled": "false",
        "menuHidden": "true",
        "options": [
          {
            "title": "1",
            "pressed": "false",
            "disabled": "false",
            "value": "1"
          },
          {
            "title": "2",
            "pressed": "false",
            "disabled": "false",
            "value": "2"
          },
          {
            "title": "4",
            "pressed": "false",
            "disabled": "false",
            "value": "4"
          }
        ]
      },
      {
        "title": "Number: Showers",
        "category": "num-shower",
        "btnPressed": "false",
        "btnDisabled": "false",
        "menuHidden": "true",
        "options": [
          {
            "title": "1",
            "pressed": "false",
            "disabled": "false",
            "value": "1"
          },
          {
            "title": "2",
            "pressed": "false",
            "disabled": "false",
            "value": "2"
          },
          {
            "title": "4",
            "pressed": "false",
            "disabled": "false",
            "value": "4"
          }
        ]
      },
      {
        "title": "Number: ADA Showers",
        "category": "num-shower-ada",
        "btnPressed": "false",
        "btnDisabled": "false",
        "menuHidden": "true",
        "options": [
          {
            "title": "0",
            "pressed": "false",
            "disabled": "false",
            "value": "0"
          },
          {
            "title": "1",
            "pressed": "false",
            "disabled": "false",
            "value": "1"
          }
        ]
      }
    ]
  }
}
