{
  "docHead": {
    "title": "Arapahoe Flush Restroom | CXT Prefabricated Concrete Buildings",
    "description": "View our prefabricated concrete Arapahoe flush restroom.",
    "devPath": "../../"
  },
  "page": {
    "title": "Arapahoe"
  },
  "breadcrumbs": [
    {
      "linkName": "home",
      "text": "Home",
      "pressed": "false",
      "disabled": "false"
    },
    {
      "text": "Products",
      "linkName": "products",
      "pressed": "false",
      "disabled": "false"
    },
    {
      "text": "Buildings",
      "linkName": "products-buildings",
      "pressed": "false",
      "disabled": "false"
    },
    {
      "text": "Flush",
      "linkName": "buildings-flush",
      "pressed": "false",
      "disabled": "false"
    },
    {
      "currPage": "true",
      "linkName": "building-arapahoe",
      "text": "Arapahoe",
      "pressed": "true",
      "disabled": "true"
    }
  ],
  "name": "Arapahoe",
  "specs": {
    "Use": "4 Family-Assist Restrooms",
    "Size": "20' x 26'",
    "Total Number of Restrooms": "4",
    "Total Number of Toilets": "4",
    "Total Number of ADA Toilets": "4",
    "Total Number of Sinks": "4",
    "Total Number of Showers": "0",
    "Total Number of ADA Showers": "0",
    "Plumbing": "Yes",
    "Wind Load": "150 mph",
    "Snow Load": "250 lb/ft<sup>2</sup>",
    "Floor Load": "400 lb/ft<sup>2</sup>",
    "Earthquake Load": "Seismic group 1 design category E"
  },
  "resources": {
    "linkName": "arapahoe",
    "specs": [
      {
        "resource": "spec",
        "text": "Arapahoe Specifications",
        "pressed": "false",
        "disabled": "false"
      }
    ],
    "drawings": [
      {
        "resource": "spec-drawing",
        "text": "Arapahoe Drawings",
        "pressed": "false",
        "disabled": "false"
      }
    ],
    "images": [
      {
        "img": "images/buildings/arapahoe/arapahoe.jpg",
        "imgAlt": "View of an installed Arapahoe flush restroom building.",
        "imgId": "arapahoeExteriorImg1",
        "wallTexture": ["Split Face"],
        "roofTexture": ["Cedar Shake"]
      },
      {
        "img": "images/buildings/arapahoe/arapahoe2.jpg",
        "imgAlt": "View of an installed Arapahoe flush restroom building.",
        "imgId": "arapahoeExteriorImg2",
        "wallTexture": ["Barnwood"],
        "roofTexture": ["Cedar Shake"]
      },
      {
        "img": "images/buildings/arapahoe/arapahoe-interior-porcelain.jpg",
        "imgAlt": "View of the interior of an Arapahoe flush restroom building with porcelain fixtures.",
        "imgId": "arapahoeInteriorImg1",
        "caption": "Interior with porcelain fixtures."
      },
      {
        "img": "images/buildings/arapahoe/arapahoe-layout.png",
        "imgAlt": "Standard architecture layout of the Arapahoe flush restroom building.",
        "imgId": "arapahoeLayoutImg1",
        "caption": "Standard building layout."
      }
    ],
    "model": {
      "loaded": "false",
      "imgLoaded": "true",
      "dataHost": "sketchfab",
      "pressed": "false",
      "disabled": "false",
      "autocomplete": "off",
      "hdSize": "true",
      "id": "8f03878c02434244ada19238b680e2ba",
      "img": "images/buildings/arapahoe/arapahoe_modelthumbnail_720x405.jpeg",
      "imgAlt": "Front of the Arapahoe Building Model."
    }
  },
  "availableTextures": {
    "wall": {
      "standard": [
        { "name": "barnwood", "pressed": "true", "disabled": "true" }
      ],
      "optional": [
        { "name": "exposedAggregate", "pressed": "false", "disabled": "false" },
        { "name": "splitFace", "pressed": "false", "disabled": "false" },
        { "name": "stucco", "pressed": "false", "disabled": "false" }
      ]
    },
    "roof": {
      "standard": [
        { "name": "cedarShake", "pressed": "true", "disabled": "true" }
      ],
      "optional": [
        { "name": "ribbedMetal", "pressed": "false", "disabled": "false" }
      ]
    }
  },
  "availableColors": [
    {
      "name": "amberRose",
      "pressed": "false",
      "disabled": "false"
    },
    {
      "name": "berryMauve",
      "pressed": "false",
      "disabled": "false"
    },
    {
      "name": "buckskin",
      "pressed": "false",
      "disabled": "false"
    },
    {
      "name": "cappuccinoCream",
      "pressed": "false",
      "disabled": "false"
    },
    {
      "name": "charcoalGray",
      "pressed": "false",
      "disabled": "false"
    },
    {
      "name": "cocoaMilk",
      "pressed": "false",
      "disabled": "false"
    },
    {
      "name": "evergreen",
      "pressed": "false",
      "disabled": "false",
      "placeholderImg": "true"
    },
    {
      "name": "georgiaBrick",
      "pressed": "false",
      "disabled": "false"
    },
    {
      "name": "goldenBeige",
      "pressed": "false",
      "disabled": "false"
    },
    {
      "name": "graniteRock",
      "pressed": "false",
      "disabled": "false"
    },
    {
      "name": "hunterGreen",
      "pressed": "false",
      "disabled": "false",
      "placeholderImg": "true"
    },
    {
      "name": "javaBrown",
      "pressed": "false",
      "disabled": "false"
    },
    {
      "name": "libertyTan",
      "pressed": "false",
      "disabled": "false"
    },
    {
      "name": "malibuTaupe",
      "pressed": "false",
      "disabled": "false"
    },
    {
      "name": "mochaCaramel",
      "pressed": "false",
      "disabled": "false"
    },
    {
      "name": "naturalHoney",
      "pressed": "false",
      "disabled": "false"
    },
    {
      "name": "nussBrown",
      "pressed": "false",
      "disabled": "false"
    },
    {
      "name": "oatmealBuff",
      "pressed": "false",
      "disabled": "false"
    },
    {
      "name": "puebloGold",
      "pressed": "false",
      "disabled": "false"
    },
    {
      "name": "ravenBlack",
      "pressed": "false",
      "disabled": "false"
    },
    {
      "name": "richEarth",
      "pressed": "false",
      "disabled": "false"
    },
    {
      "name": "rosewood",
      "pressed": "false",
      "disabled": "false"
    },
    {
      "name": "sageGreen",
      "pressed": "false",
      "disabled": "false",
      "placeholderImg": "true"
    },
    {
      "name": "salsaRed",
      "pressed": "false",
      "disabled": "false"
    },
    {
      "name": "sandBeige",
      "pressed": "false",
      "disabled": "false"
    },
    {
      "name": "sunBronze",
      "pressed": "false",
      "disabled": "false"
    },
    {
      "name": "toastedAlmond",
      "pressed": "false",
      "disabled": "false"
    },
    {
      "name": "westernWheat",
      "pressed": "false",
      "disabled": "false"
    }
  ],
  "fixtureColors": [
    {
      "name": "white",
      "pressed": "false",
      "disabled": "false",
      "placeholderImg": "true"
    },
    {
      "name": "stainlessSteel",
      "pressed": "false",
      "disabled": "false",
      "placeholderImg": "true"
    }
  ],
  "colorBtns": [
    {
      "text": "Wall",
      "id": "btn-wall-colors",
      "dataAttributes": {
        "data-selected-color": "#c49c79",
        "data-category": "wall"
      },
      "ariaControls": "tab-wall-roof-colors",
      "pressed": "true",
      "disabled": "true"
    },
    {
      "text": "Roof",
      "id": "btn-roof-colors",
      "dataAttributes": {
        "data-selected-color": "#523e33",
        "data-category": "roof"
      },
      "ariaControls": "tab-wall-roof-colors",
      "pressed": "false",
      "disabled": "false"
    },
    {
      "text": "Fixtures",
      "id": "btn-fixtures-colors",
      "dataAttributes": {
        "data-selected-color": "#ffffff",
        "data-category": "fixture"
      },
      "ariaControls": "tab-fixtures-colors",
      "pressed": "false",
      "disabled": "false"
    }
  ]
}
