{
  "docHead": {
    "title": "CXT Prefabricated Concrete Buildings",
    "description": "CXT is a leading manufacturer of prefabricated concrete restrooms, showers, concession, and utility buildings - over 20,000 buildings in use nationwide."
  },
  "page": {
    "title": "CXT Prefabricated Concrete Buildings"
  },
  "contact": {
    "links": [
      {
        "linkName": "contact-sales",
        "text": "Sales",
        "pressed": "false",
        "disabled": "false"
      },
      {
        "linkName": "contact-sales-govt",
        "text": "Government Sales",
        "pressed": "false",
        "disabled": "false"
      },
      {
        "linkName": "contact-install",
        "pressed": "false",
        "disabled": "false"
      },
      {
        "linkName": "contact-warranty",
        "pressed": "false",
        "disabled": "false"
      }
    ]
  },
  "products": {
    "links": [
      {
        "linkName": "products-buildings",
        "pressed": "false",
        "disabled": "false",
        "buildingImg": "true"
      },
      {
        "linkName": "products-replaceparts",
        "newWindow": "true",
        "pressed": "false",
        "disabled": "false",
        "partsImg": "true"
      },
      {
        "linkName": "maintenance",
        "pressed": "false",
        "disabled": "false",
        "maintenanceImg": "true"
      },
      {
        "linkName": "install",
        "pressed": "false",
        "disabled": "false",
        "installImg": "true"
      }
    ]
  }
}
