{
  "products": true,
  "docHead": {
    "title": "Products | CXT Prefabricated Concrete Buildings",
    "description": "View our products, including our various prefabricated concrete buildings and building replacement parts.",
    "devPath": "../"
  },
  "page": {
    "title": "Products"
  },
  "breadcrumbs": [
    {
      "linkName": "home",
      "text": "Home",
      "pressed": "false",
      "disabled": "false"
    },
    {
      "currPage": "true",
      "linkName": "products",
      "text": "Products",
      "pressed": "true",
      "disabled": "true"
    }
  ],
  "sectionLinks": {
    "replaceParts": {
      "title": "Replacement Parts",
      "headline": "We sell a variety of replacement building parts.",
      "linkName": "products-replaceparts",
      "text": "Get Parts",
      "pressed": "false",
      "disabled": "false",
      "newWindow": true
    },
    "textureColors": {
      "title": "Textures &amp; Colors",
      "headline": "Our buildings come in a variety of textures and colors.",
      "linkName": "products-textscolors",
      "text": "Browse",
      "pressed": "false",
      "disabled": "false"
    }
  },
  "buildingCategories": [
    {
      "linkName": "products-buildings",
      "text": "All Buildings",
      "img": "images/buildings/allbuildings.jpg",
      "imgAlt": "View an installed prefacbricated concrete building.",
      "disabled": "false"
    },
    {
      "linkName": "buildings-flush",
      "text": "Flush Restrooms",
      "img": "images/buildings/flush.jpg",
      "imgAlt": "View an installed prefacbricated concrete flush restroom.",
      "disabled": "false"
    },
    {
      "linkName": "buildings-shower",
      "text": "Restrooms with Shower",
      "img": "images/buildings/shower.jpg",
      "imgAlt": "View an installed prefacbricated concrete flush restroom with shower.",
      "disabled": "false"
    },
    {
      "linkName": "buildings-vault",
      "text": "Vault Restrooms",
      "img": "images/buildings/vault.jpg",
      "imgAlt": "View an installed prefacbricated concrete vault restroom.",
      "disabled": "false"
    },
    {
      "linkName": "buildings-concession",
      "text": "Concession",
      "img": "images/buildings/concession.jpg",
      "imgAlt": "View an installed prefacbricated concrete concession building.",
      "disabled": "false"
    },
    {
      "linkName": "buildings-utility",
      "text": "Utility",
      "img": "images/buildings/utility.jpg",
      "imgAlt": "View an installed prefacbricated concrete utility building.",
      "disabled": "false"
    }
  ]
}
