{
  "barnwood": {
    "img": "images/textures/barnwood.jpg",
    "imgAlt": "Wall texture option: Barnwood.",
    "imgTitle": "Barnwood",
    "text": "Barnwood"
  },
  "boardBatt": {
    "img": "images/textures/boardbatt.jpg",
    "imgAlt": "Wall texture option: Board and Batt.",
    "imgTitle": "Board & Batt",
    "text": "Board & Batt"
  },
  "brick": {
    "img": "images/textures/brick.jpg",
    "imgAlt": "Wall texture option: Brick.",
    "imgTitle": "Brick",
    "text": "Brick"
  },
  "exposedAggregate": {
    "img": "images/textures/exposedaggregate.jpg",
    "imgAlt": "Wall texture option: Exposed Aggregate.",
    "imgTitle": "Exposed Aggregate",
    "text": "Exposed Aggregate"
  },
  "horizontalLap": {
    "img": "https://via.placeholder.com/100.png/F2F2F2/000000?text=need+image",
    "imgAlt": "Wall texture option: Horizontal Lap.",
    "imgTitle": "Horizontal Lap",
    "text": "Horizontal Lap"
  },
  "splitFace": {
    "img": "images/textures/splitface.jpg",
    "imgAlt": "Wall texture option: Split Face.",
    "imgTitle": "Split Face",
    "text": "Split Face"
  },
  "stucco": {
    "img": "images/textures/stucco.jpg",
    "imgAlt": "Wall texture option: Stucco.",
    "imgTitle": "Stucco",
    "text": "Stucco"
  },
  "fieldStone": {
    "img": "https://via.placeholder.com/100.png/F2F2F2/000000?text=need+image",
    "imgAlt": "Wall texture option: Field Stone.",
    "imgTitle": "Field Stone",
    "text": "Field Stone"
  },
  "flagstone": {
    "img": "https://via.placeholder.com/100.png/F2F2F2/000000?text=need+image",
    "imgAlt": "Wall texture option: Flagstone.",
    "imgTitle": "Flagstone",
    "text": "Flagstone"
  },
  "napaValley": {
    "img": "https://via.placeholder.com/100.png/F2F2F2/000000?text=need+image",
    "imgAlt": "Wall texture option: Napa Valley.",
    "imgTitle": "Napa Valley",
    "text": "Napa Valley"
  },
  "riverRock": {
    "img": "https://via.placeholder.com/100.png/F2F2F2/000000?text=need+image",
    "imgAlt": "Wall texture option: River Rock.",
    "imgTitle": "River Rock",
    "text": "River Rock"
  },
  "cedarShake": {
    "img": "images/textures/cedarshake.jpg",
    "imgAlt": "Roof texture option: Cedar Shake.",
    "imgTitle": "Cedar Shake",
    "text": "Cedar Shake"
  },
  "ribbedMetal": {
    "img": "images/textures/ribbedmetal.jpg",
    "imgAlt": "Roof texture option: Ribbed Metal.",
    "imgTitle": "Ribbed Metal",
    "text": "Ribbed Metal"
  },
  "tile": {
    "img": "https://via.placeholder.com/100.png/F2F2F2/000000?text=need+image",
    "imgAlt": "Roof texture option: Tile.",
    "imgTitle": "Tile",
    "text": "Tile"
  },
  "basalt": {
    "img": "https://via.placeholder.com/100.png/F2F2F2/000000?text=need+image",
    "imgAlt": "Stone color option: Basalt.",
    "imgTitle": "Basalt",
    "text": "Basalt"
  },
  "mountainBlend": {
    "img": "https://via.placeholder.com/100.png/F2F2F2/000000?text=need+image",
    "imgAlt": "Stone color option: Mountain Blend.",
    "imgTitle": "Mountain Blend",
    "text": "Mountain Blend"
  },
  "naturalGray": {
    "img": "https://via.placeholder.com/100.png/F2F2F2/000000?text=need+image",
    "imgAlt": "Stone color option: Natural Gray.",
    "imgTitle": "Natural Gray",
    "text": "Natural Gray"
  },
  "romana": {
    "img": "https://via.placeholder.com/100.png/F2F2F2/000000?text=need+image",
    "imgAlt": "Stone color option: Romana.",
    "imgTitle": "Romana",
    "text": "Romana"
  }
}
