{
  "products-textscolors": true,
  "docHead": {
    "title": "Textures and Colors | CXT Prefabricated Concrete Buildings",
    "description": "View all the texture and color options for our prefabricated concrete buildings.",
    "devPath": "../"
  },
  "page": {
    "title": "Textures and Colors"
  },
  "breadcrumbs": [
    {
      "linkName": "home",
      "text": "Home",
      "pressed": "false",
      "disabled": "false"
    },
    {
      "linkName": "products",
      "text": "Products",
      "pressed": "false",
      "disabled": "false"
    },
    {
      "currPage": "true",
      "linkName": "products-textscolors",
      "text": "Textures and Colors",
      "pressed": "true",
      "disabled": "true"
    }
  ],
  "textureCategories": [
    {
      "title": "Wall",
      "textures": [
        {
          "name": "barnwood"
        },
        {
          "name": "boardBatt"
        },
        {
          "name": "brick"
        },
        {
          "name": "exposedAggregate"
        },
        {
          "name": "horizontalLap",
          "placeholderImg": "true"
        },
        {
          "name": "splitFace"
        },
        {
          "name": "stucco"
        },
        {
          "name": "fieldStone",
          "placeholderImg": "true"
        },
        {
          "name": "flagstone",
          "placeholderImg": "true"
        },
        {
          "name": "napaValley",
          "placeholderImg": "true"
        },
        {
          "name": "riverRock",
          "placeholderImg": "true"
        }
      ]
    },
    {
      "title": "Roof",
      "textures": [
        {
          "name": "cedarShake"
        },
        {
          "name": "exposedAggregate"
        },
        {
          "name": "ribbedMetal"
        },
        {
          "name": "tile",
          "placeholderImg": "true"
        }
      ]
    },
    {
      "title": "Stone Colors",
      "textures": [
        {
          "name": "basalt",
          "placeholderImg": "true"
        },
        {
          "name": "mountainBlend",
          "placeholderImg": "true"
        },
        {
          "name": "naturalGray",
          "placeholderImg": "true"
        },
        {
          "name": "romana",
          "placeholderImg": "true"
        }
      ]
    }
  ],
  "colors": [
    {
      "name": "amberRose"
    },
    {
      "name": "berryMauve"
    },
    {
      "name": "buckskin"
    },
    {
      "name": "cappuccinoCream"
    },
    {
      "name": "charcoalGray"
    },
    {
      "name": "cocoaMilk"
    },
    {
      "name": "evergreen",
      "placeholderImg": "true"
    },
    {
      "name": "georgiaBrick"
    },
    {
      "name": "goldenBeige"
    },
    {
      "name": "graniteRock"
    },
    {
      "name": "hunterGreen",
      "placeholderImg": "true"
    },
    {
      "name": "javaBrown"
    },
    {
      "name": "libertyTan"
    },
    {
      "name": "malibuTaupe"
    },
    {
      "name": "mochaCaramel"
    },
    {
      "name": "naturalHoney"
    },
    {
      "name": "nussBrown"
    },
    {
      "name": "oatmealBuff"
    },
    {
      "name": "puebloGold"
    },
    {
      "name": "ravenBlack"
    },
    {
      "name": "richEarth"
    },
    {
      "name": "rosewood"
    },
    {
      "name": "sageGreen",
      "placeholderImg": "true"
    },
    {
      "name": "salsaRed"
    },
    {
      "name": "sandBeige"
    },
    {
      "name": "sunBronze"
    },
    {
      "name": "toastedAlmond"
    },
    {
      "name": "westernWheat"
    }
  ]
}
